[gd_scene load_steps=3 format=2]

[ext_resource path="res://scripts/Mushroom.gd" type="Script" id=1]

[sub_resource type="SpatialMaterial" id=1]

albedo_color = Color( 0.533333, 0.0588235, 0.576471, 1 )
metallic = 0.09
roughness = 0.82

[node name="Mushroom" type="RigidBody"]
transform = Transform( 1, 0, 0, 0, 1, 0, 0, 0, 1, 0, 0, -1 )
collision_layer = 4
collision_mask = 31
mode = 1
gravity_scale = 0.0
contacts_reported = 3
contact_monitor = true
script = ExtResource( 1 )
edible = true
material = SubResource( 1 )

