<?xml version="1.0" encoding="UTF-8" standalone="no"?>
<!-- Created with Inkscape (http://www.inkscape.org/) -->

<svg
   xmlns:dc="http://purl.org/dc/elements/1.1/"
   xmlns:cc="http://creativecommons.org/ns#"
   xmlns:rdf="http://www.w3.org/1999/02/22-rdf-syntax-ns#"
   xmlns:svg="http://www.w3.org/2000/svg"
   xmlns="http://www.w3.org/2000/svg"
   xmlns:xlink="http://www.w3.org/1999/xlink"
   xmlns:sodipodi="http://sodipodi.sourceforge.net/DTD/sodipodi-0.dtd"
   xmlns:inkscape="http://www.inkscape.org/namespaces/inkscape"
   width="384"
   height="31.999998"
   viewBox="0 0 101.59999 8.4666664"
   version="1.1"
   id="svg8"
   inkscape:version="0.92.3 (2405546, 2018-03-11)"
   sodipodi:docname="logo.svg">
  <defs
     id="defs2" />
  <sodipodi:namedview
     id="base"
     pagecolor="#000000"
     bordercolor="#666666"
     borderopacity="1.0"
     inkscape:pageopacity="0"
     inkscape:pageshadow="2"
     inkscape:zoom="2"
     inkscape:cx="169.18756"
     inkscape:cy="-34.97608"
     inkscape:document-units="mm"
     inkscape:current-layer="layer1"
     showgrid="false"
     units="px"
     fit-margin-top="0"
     fit-margin-left="0"
     fit-margin-right="0"
     fit-margin-bottom="0"
     inkscape:window-width="1600"
     inkscape:window-height="900"
     inkscape:window-x="0"
     inkscape:window-y="0"
     inkscape:window-maximized="0"
     inkscape:snap-global="true"
     inkscape:object-paths="true"
     inkscape:snap-bbox="true"
     inkscape:snap-smooth-nodes="true"
     inkscape:snap-intersection-paths="true">
    <inkscape:grid
       type="xygrid"
       id="grid934"
       empspacing="4" />
  </sodipodi:namedview>
  <metadata
     id="metadata5">
    <rdf:RDF>
      <cc:Work
         rdf:about="">
        <dc:format>image/svg+xml</dc:format>
        <dc:type
           rdf:resource="http://purl.org/dc/dcmitype/StillImage" />
        <dc:title></dc:title>
      </cc:Work>
    </rdf:RDF>
  </metadata>
  <g
     inkscape:label="Layer 1"
     inkscape:groupmode="layer"
     id="layer1"
     transform="translate(-54.199993,-144.26666)">
    <image
       xlink:href="logo-concept.png"
       width="101.60001"
       height="8.4666662"
       preserveAspectRatio="none"
       style="display:none;opacity:1;image-rendering:optimizeSpeed"
       id="image893"
       x="54.199993"
       y="144.26666" />
    <path
       style="opacity:1;fill:#ffffff;fill-opacity:1;stroke:none;stroke-width:0.99999994px;stroke-linecap:butt;stroke-linejoin:miter;stroke-opacity:1"
       d="M 15,0 C 5.0000013,0 0,4 0,10 v 12 c 0,6 5.0000013,10 15,10 h 18 c 9.999999,0 15,-4 15,-10 V 10 C 48,4 42.999999,0 33,0 Z m 9,8 c 5.000001,0 8,1 8,4 v 8 c 0,3 -2.999999,4 -8,4 -5.000001,0 -8,-1 -8,-4 v -8 c 0,-3 2.999999,-4 8,-4 z"
       transform="matrix(0.26458333,0,0,0.26458333,54.199993,144.26666)"
       id="path4639"
       inkscape:connector-curvature="0" />
    <path
       style="opacity:1;fill:#ffffff;fill-opacity:1;stroke:none;stroke-width:0.99999994px;stroke-linecap:butt;stroke-linejoin:miter;stroke-opacity:1"
       d="m 64,0 c -4.999997,0 -8,1 -8,4 v 24 c 4e-6,3 3.000003,4 8,4 5.000001,0 8,-1 8,-4 v -4 h 16 c 10.000003,0 16,-4 16,-10 V 10 C 104,4 98.000003,0 88,0 Z m 8.000001,9.9999982 c 0,-1 1,-2 2,-2 L 80,8 c 5.000001,1.5e-6 8,1 8,4 0,3 -2.999999,4 -8,4 l -5.999999,-2e-6 c -1,0 -2,-1 -2,-2 0,-2.666666 0,-1.333333 0,-3.9999998 z"
       transform="matrix(0.26458333,0,0,0.26458333,54.199993,144.26666)"
       id="path4651"
       inkscape:connector-curvature="0"
       sodipodi:nodetypes="sscsscsssssccsssccc" />
    <path
       style="fill:#ffffff;fill-opacity:1;stroke:none;stroke-width:0.26458332px;stroke-linecap:butt;stroke-linejoin:miter;stroke-opacity:1"
       d="m 85.949993,144.26666 c -1.322917,0 -2.116667,0.26458 -2.116667,0.79375 v 0.52917 c 0,0.52916 0.79375,0.79375 2.116667,0.79375 h 1.5875 c 0.264583,0 0.529167,0.26458 0.529167,0.52916 l -10e-7,4.7625 c 10e-7,0.79375 0.793751,1.05834 2.116667,1.05834 1.322917,0 2.116667,-0.26459 2.116667,-1.05834 v -4.7625 c 0,-0.26458 0.264583,-0.52916 0.529167,-0.52916 h 1.587499 c 1.322917,0 2.116667,-0.26459 2.116667,-0.79375 v -0.52917 c 0,-0.52917 -0.79375,-0.79375 -2.116667,-0.79375 z"
       id="path4657"
       inkscape:connector-curvature="0"
       sodipodi:nodetypes="cccccccccccccccc" />
    <path
       style="opacity:1;fill:#ffffff;fill-opacity:1;stroke:none;stroke-width:0.26458332px;stroke-linecap:butt;stroke-linejoin:miter;stroke-opacity:1"
       d="m 132.25208,144.26666 c -2.64584,0 -3.96875,1.05833 -3.96875,2.64583 v 3.175 c 0,1.5875 1.32291,2.64584 3.96875,2.64584 h 4.7625 c 2.64583,0 3.96875,-1.05834 3.96875,-2.64584 v -3.175 c 0,-1.5875 -1.32292,-2.64583 -3.96875,-2.64583 z m 2.38125,2.11667 c 1.32291,0 2.11666,0.26458 2.11666,1.05833 v 2.11667 c 0,0.79375 -0.79375,1.05833 -2.11666,1.05833 -1.32292,0 -2.11667,-0.26458 -2.11667,-1.05833 v -2.11667 c 0,-0.79375 0.79375,-1.05833 2.11667,-1.05833 z"
       id="path4639-4"
       inkscape:connector-curvature="0" />
    <path
       style="opacity:1;fill:#ffffff;fill-opacity:1;stroke:none;stroke-width:0.99999994px;stroke-linecap:butt;stroke-linejoin:miter;stroke-opacity:1"
       d="m 239,0 c -9.99999,0 -15,4 -15,10 v 12 c 0,6 5.00001,10 15,10 h 18 c 10.00003,0 15,-4 15,-10 v -2 c 0,-1.000002 -1,-2.000002 -2,-2.000002 h -12 c -1,0 -2,1 -2,2.000002 0,3 -2.99999,4 -8,4 -4.99997,0 -8,-1 -8,-4 v -8 c 0,-3 3.00003,-4 8,-4 5.00001,0 8,1 8,4 0,0.999998 1,1.999998 2,1.999998 h 12 c 1,0 2,-1 2,-1.999998 V 10 C 272,4 267.00003,0 257,0 Z"
       transform="matrix(0.26458333,0,0,0.26458333,54.199993,144.26666)"
       id="path4639-2"
       inkscape:connector-curvature="0"
       sodipodi:nodetypes="ssssssccccssssccccsss" />
    <path
       style="fill:#ffffff;fill-opacity:1;stroke:none;stroke-width:0.26458332px;stroke-linecap:butt;stroke-linejoin:miter;stroke-opacity:1"
       d="m 145.21666,152.73333 c -1.32292,0 -2.11667,-0.26459 -2.11667,-1.05834 v -6.35 c 0,-0.79375 0.79375,-1.05833 2.11667,-1.05833 h 6.35 c 2.64583,0 4.23333,0.52917 4.23333,2.11667 v 5.29166 c 0,0.79375 -0.79375,1.05834 -2.11666,1.05834 -1.32292,0 -2.11667,-0.26459 -2.11667,-1.05834 v -4.23333 c 0,-0.79375 -0.52917,-1.05833 -2.11667,-1.05833 l -1.5875,0 c -0.26458,0 -0.52916,0.26458 -0.52916,0.52916 l 0,4.7625 c 0,0.79375 -0.79375,1.05834 -2.11667,1.05834 z"
       id="path4714"
       inkscape:connector-curvature="0"
       sodipodi:nodetypes="ccccccccccccccc" />
    <path
       style="fill:#ffffff;fill-opacity:1;stroke:none;stroke-width:0.99999994px;stroke-linecap:butt;stroke-linejoin:miter;stroke-opacity:1"
       d="m 176,0 c -5,0 -8,0.9999874 -8,3 v 2 c 0,1.9999748 3,3 8,3 h 6 c 0.99999,0 2,1.0000126 2,2 v 12 c 0,0.999987 -1.00001,2 -2,2 h -6 c -5,0 -8,1.000025 -8,3 v 2 c 0,2.000013 3,3 8,3 h 16 16 c 5.00001,0 8,-0.999987 8,-3 v -2 c 0,-1.999975 -2.99999,-3 -8,-3 h -6 c -0.99999,0 -2,-1.000013 -2,-2 V 10 c 0,-0.9999874 1.00001,-2 2,-2 h 6 c 5.00001,0 8,-1.0000252 8,-3 V 3 c 0,-2.0000126 -2.99999,-3 -8,-3 h -16 z"
       transform="matrix(0.26458333,0,0,0.26458333,54.199993,144.26666)"
       id="path4657-0"
       inkscape:connector-curvature="0" />
  </g>
</svg>
